Técnicas e Métodos de Pesquisa no R - 6 Lista 6 - Kaplan-Meier e Cox Regression
…
E a função função tidy_survfit() nos oferece uma tabela bem mais completa.

tidy_survfit(fit1)

# A tibble: 63 × 14
    time n.risk n.event n.censor cum.event cum.censor estimate std.error
   <dbl>  <dbl>   <dbl>    <dbl>     <dbl>      <dbl>    <dbl>     <dbl>
 1     0    124       2        1         2          1    0.984    0.0115
 2     3    121       2        0         4          1    0.968    0.0165
 3     4    119       2        0         6          1    0.951    0.0204
 4     6    117       1        0         7          1    0.943    0.0221
 5     8    116       2        0         9          1    0.927    0.0253
 6    11    114       1        0        10          1    0.919    0.0268
 7    13    113       1        0        11          1    0.911    0.0282
 8    14    112       0        1        11          2    0.911    0.0282
 9    15    111       0        1        11          3    0.911    0.0282
10    16    110       1        0        12          3    0.902    0.0297
# ℹ 53 more rows
# ℹ 6 more variables: conf.high <dbl>, conf.low <dbl>, estimate_type <chr>,
#   estimate_type_label <chr>, monotonicity_type <chr>, conf.level <dbl>
…
